{
    "camera":
    {
        "transform": { "from": [0,0.5,4] }
    },
    "materials": [
        {
            "type": "lambertian",
            "name": "white",
            "albedo": [0.6,0.6,0.6]
        },
        {
            "type": "dielectric",
            "name": "glass",
            "ior": 1.1
        },
        {
            "type": "lambertian",
            "name": "green",
            "albedo": [0.4,0.6,0.4]
        }
    ],
    "surfaces": [
        {
            "type": "quad",
            "transform": [
                { "axis": [1,0,0], "angle": -90 },
                { "translate": [0,-1,0] }
            ],
            "size": 100,
            "material": "white"
        },
        {
            "type": "sphere",
            "transform": { "translate": [0.5,0.0,0] },
            "radius": 1.0,
            "material": "glass"
        },
        {
            "type": "sphere",
            "transform": { "translate": [-0.3,-0.25,-1.8] },
            "radius": 0.75,
            "material": "green"
        }
    ],
    "image_samples": 100,
    "background": [1, 1, 1]
}